<?xml version="1.0" encoding="UTF-8" standalone="no"?>
<!-- Created with Inkscape (http://www.inkscape.org/) -->

<svg
   xmlns:dc="http://purl.org/dc/elements/1.1/"
   xmlns:cc="http://creativecommons.org/ns#"
   xmlns:rdf="http://www.w3.org/1999/02/22-rdf-syntax-ns#"
   xmlns:svg="http://www.w3.org/2000/svg"
   xmlns="http://www.w3.org/2000/svg"
   xmlns:sodipodi="http://sodipodi.sourceforge.net/DTD/sodipodi-0.dtd"
   xmlns:inkscape="http://www.inkscape.org/namespaces/inkscape"
   width="82.238564mm"
   height="82.233482mm"
   viewBox="0 0 82.238564 82.233482"
   version="1.1"
   id="svg5311"
   inkscape:version="0.92.4 (5da689c313, 2019-01-14)"
   sodipodi:docname="logo.svg"
   inkscape:export-filename="/home/bunny/work/freedombox/i2p/logo.png"
   inkscape:export-xdpi="158.14484"
   inkscape:export-ydpi="158.14484">
  <title
     id="title4548">I2P</title>
  <defs
     id="defs5305" />
  <sodipodi:namedview
     id="base"
     pagecolor="#ffffff"
     bordercolor="#666666"
     borderopacity="1.0"
     inkscape:pageopacity="0.0"
     inkscape:pageshadow="2"
     inkscape:zoom="0.98994949"
     inkscape:cx="-333.60853"
     inkscape:cy="83.287284"
     inkscape:document-units="mm"
     inkscape:current-layer="layer1"
     showgrid="false"
     fit-margin-top="0"
     fit-margin-left="0"
     fit-margin-right="0.2"
     fit-margin-bottom="0"
     inkscape:window-width="2165"
     inkscape:window-height="1223"
     inkscape:window-x="960"
     inkscape:window-y="329"
     inkscape:window-maximized="0" />
  <metadata
     id="metadata5308">
    <rdf:RDF>
      <cc:Work
         rdf:about="">
        <dc:format>image/svg+xml</dc:format>
        <dc:type
           rdf:resource="http://purl.org/dc/dcmitype/StillImage" />
        <dc:title>I2P</dc:title>
        <cc:license
           rdf:resource="https://www.gnu.org/licenses/agpl-3.0.en.html" />
        <dc:creator>
          <cc:Agent>
            <dc:title>Sunil Mohan Adapa &lt;sunil@medhas.org&gt;</dc:title>
          </cc:Agent>
        </dc:creator>
        <dc:date>2019-04-01</dc:date>
        <dc:description />
        <dc:source>https://commons.wikimedia.org/wiki/File:I2P_logo.svg</dc:source>
      </cc:Work>
    </rdf:RDF>
  </metadata>
  <g
     inkscape:label="Layer 1"
     inkscape:groupmode="layer"
     id="layer1"
     transform="translate(-70.007914,-84.282074)">
    <g
       id="g5041"
       transform="matrix(1.5533984,0,0,1.5533984,-113.33574,24.244873)">
      <path
         inkscape:connector-curvature="0"
         style="fill:#ff0000;fill-opacity:1;stroke:none;stroke-width:1.46127701"
         id="path3798-3"
         d="m 125.47315,47.54207 a 3.540375,3.540375 0 1 1 -7.08075,0 3.540375,3.540375 0 1 1 7.08075,0 z" />
      <path
         inkscape:connector-curvature="0"
         style="fill:#ff0000;fill-opacity:1;stroke:none;stroke-width:1.46127701"
         id="path3800-6"
         d="m 125.47315,59.2592 a 3.540375,3.540375 0 1 1 -7.08075,0 3.540375,3.540375 0 1 1 7.08075,0 z" />
      <path
         inkscape:connector-curvature="0"
         style="fill:#ff0000;fill-opacity:1;stroke:none;stroke-width:1.46127701"
         id="path3802-7"
         d="m 125.47315,70.97627 a 3.540375,3.540375 0 1 1 -7.08075,0 3.540375,3.540375 0 1 1 7.08075,0 z" />
      <path
         inkscape:connector-curvature="0"
         style="fill:#ff0000;fill-opacity:1;stroke:none;stroke-width:1.46127701"
         id="path3804-5"
         d="m 125.47315,82.69341 a 3.540375,3.540375 0 1 1 -7.08075,0 3.540375,3.540375 0 1 1 7.08075,0 z" />
    </g>
    <g
       id="g6025"
       transform="translate(-8.0673233,-4.3621223e-4)">
      <path
         inkscape:connector-curvature="0"
         style="fill:#ebed02;fill-opacity:1;stroke:none;stroke-width:2.269943"
         id="path3873-0"
         d="m 107.20556,98.097074 a 5.499614,5.4996023 0 1 1 -10.999228,0 5.499614,5.4996023 0 1 1 10.999228,0 z" />
      <path
         inkscape:connector-curvature="0"
         style="fill:#ff0000;fill-opacity:1;stroke:none;stroke-width:2.269943"
         id="path3875-9"
         d="m 107.20556,116.29841 a 5.499614,5.4996023 0 1 1 -10.999228,0 5.499614,5.4996023 0 1 1 10.999228,0 z" />
      <path
         inkscape:connector-curvature="0"
         style="fill:#ebed02;fill-opacity:1;stroke:none;stroke-width:2.269943"
         id="path3877-3"
         d="m 107.20556,134.49965 a 5.499614,5.4996023 0 1 1 -10.999228,0 5.499614,5.4996023 0 1 1 10.999228,0 z" />
      <path
         inkscape:connector-curvature="0"
         style="fill:#ff0000;fill-opacity:1;stroke:none;stroke-width:2.269943"
         id="path3879-6"
         d="m 107.20556,152.70099 a 5.499614,5.4996023 0 1 1 -10.999228,0 5.499614,5.4996023 0 1 1 10.999228,0 z" />
    </g>
    <g
       id="g6019"
       transform="translate(8.5383197,0.00534911)">
      <path
         inkscape:connector-curvature="0"
         style="fill:#16ff0e;fill-opacity:0.85882353;stroke:none;stroke-width:2.26994538"
         id="path3921-0"
         d="m 125.72828,98.096947 a 5.4996129,5.4996129 0 1 1 -10.99922,0 5.4996129,5.4996129 0 1 1 10.99922,0 z" />
      <path
         inkscape:connector-curvature="0"
         style="fill:#ebed02;fill-opacity:1;stroke:none;stroke-width:2.26994538"
         id="path3923-6"
         d="m 125.72828,116.29832 a 5.4996129,5.4996129 0 1 1 -10.99922,0 5.4996129,5.4996129 0 1 1 10.99922,0 z" />
      <path
         inkscape:connector-curvature="0"
         style="fill:#16ff0e;fill-opacity:1;stroke:none;stroke-width:2.26994538"
         id="path3925-2"
         d="m 125.72828,134.49959 a 5.4996129,5.4996129 0 1 1 -10.99922,0 5.4996129,5.4996129 0 1 1 10.99922,0 z" />
      <path
         inkscape:connector-curvature="0"
         style="fill:#ebed02;fill-opacity:1;stroke:none;stroke-width:2.26994538"
         id="path3927-6"
         d="m 125.72828,152.70098 a 5.4996129,5.4996129 0 1 1 -10.99922,0 5.4996129,5.4996129 0 1 1 10.99922,0 z" />
    </g>
    <g
       id="g5169"
       transform="matrix(1.5533984,0,0,1.5533984,-324.6688,22.140315)">
      <path
         inkscape:connector-curvature="0"
         style="fill:#16ff0e;fill-opacity:1;stroke:none;stroke-width:1.46127701"
         id="path3953-1"
         d="m 306.74654,48.896879 a 3.540375,3.540375 0 1 1 -7.08075,0 3.540375,3.540375 0 1 1 7.08075,0 z" />
      <path
         inkscape:connector-curvature="0"
         style="fill:#16ff0e;fill-opacity:1;stroke:none;stroke-width:1.46127701"
         id="path3955-8"
         d="m 306.74654,60.614009 a 3.540375,3.540375 0 1 1 -7.08075,0 3.540375,3.540375 0 1 1 7.08075,0 z" />
      <path
         inkscape:connector-curvature="0"
         style="fill:#16ff0e;fill-opacity:1;stroke:none;stroke-width:1.46127701"
         id="path3957-7"
         d="m 306.74654,72.331079 a 3.540375,3.540375 0 1 1 -7.08075,0 3.540375,3.540375 0 1 1 7.08075,0 z" />
      <path
         inkscape:connector-curvature="0"
         style="fill:#16ff0e;fill-opacity:1;stroke:none;stroke-width:1.46127701"
         id="path3959-9"
         d="m 306.74654,84.048219 a 3.540375,3.540375 0 1 1 -7.08075,0 3.540375,3.540375 0 1 1 7.08075,0 z" />
    </g>
    <g
       id="g6013"
       transform="translate(35.695276,-0.1044443)">
      <path
         inkscape:connector-curvature="0"
         style="fill:#ebed02;fill-opacity:1;stroke:none;stroke-width:2.269943"
         id="path3873-0-7"
         d="m 81.007144,98.201083 a 5.499615,5.4996033 0 1 1 -10.99923,0 5.499615,5.4996033 0 1 1 10.99923,0 z" />
      <path
         inkscape:connector-curvature="0"
         style="fill:#ebed02;fill-opacity:1;stroke:none;stroke-width:2.269943"
         id="path3877-3-5"
         d="m 81.007144,134.60366 a 5.499615,5.4996033 0 1 1 -10.99923,0 5.499615,5.4996033 0 1 1 10.99923,0 z" />
      <path
         inkscape:connector-curvature="0"
         style="fill:#ebed02;fill-opacity:1;stroke:none;stroke-width:2.26994538"
         id="path3923-6-9"
         d="m 81.007137,116.40233 a 5.499613,5.499613 0 1 1 -10.99922,0 5.499613,5.499613 0 1 1 10.99922,0 z" />
      <path
         inkscape:connector-curvature="0"
         style="fill:#ebed02;fill-opacity:1;stroke:none;stroke-width:2.26994538"
         id="path3927-6-2"
         d="m 81.007137,152.80499 a 5.499613,5.499613 0 1 1 -10.99922,0 5.499613,5.499613 0 1 1 10.99922,0 z" />
    </g>
  </g>
</svg>
